…
# Data Prevalence

## *E.coli* Data by Year

``` r
presumpscot_data %>%
  group_by(Site, Year)%>%
  summarize(n=sum(! is.na(Ecoli)))%>%
  spread(Year, n)
#> `summarise()` regrouping output by 'Site' (override with `.groups` argument)
#> # A tibble: 47 x 12
#> # Groups:   Site [47]
#>    Site  `2009` `2010` `2011` `2012` `2013` `2014` `2015` `2016` `2017` `2018`
#>    <chr>  <int>  <int>  <int>  <int>  <int>  <int>  <int>  <int>  <int>  <int>
#>  1 BB010      5      7      6      7      8      9      8     NA      9      9
#>  2 BL010     NA     NA      7      8      7      9      8      2     10      9
#>  3 BL020     NA     NA     NA     NA     NA     NA     NA     NA      8     10
#>  4 CW010     NA     NA      7      9      8      9      7      2      3     10
#>  5 CW020     NA     NA      3     NA     10     10      7      2      4     10
#>  6 DB010      6      7      6      6      8      9      8      7     10      6
#>  7 DG010      7      2      6     NA      8     10      8      5     11      7
#>  8 IN010     NA     NA      8      8     NA     NA     NA     NA      9      8
#>  9 L010       6      6      6     10     NA     10      8      9     11     10
#> 10 L020       4      4      5     NA     NA     NA     NA     NA      3      7
#> # ... with 37 more rows, and 1 more variable: `2019` <int>
```

## DO Data by Year

``` r
presumpscot_data %>%
  group_by(Site, Year)%>%
  summarize(n=sum(! is.na(DO)))%>%
  spread(Year, n)
#> `summarise()` regrouping output by 'Site' (override with `.groups` argument)
#> # A tibble: 47 x 12
#> # Groups:   Site [47]
#>    Site  `2009` `2010` `2011` `2012` `2013` `2014` `2015` `2016` `2017` `2018`
#>    <chr>  <int>  <int>  <int>  <int>  <int>  <int>  <int>  <int>  <int>  <int>
#>  1 BB010      6      6      7      6      8      8      7     NA      9      8
#>  2 BL010     NA     NA      8      8      8      8      8      2     10      9
#>  3 BL020     NA     NA     NA     NA     NA     NA     NA     NA      9      9
#>  4 CW010     NA     NA      8      9      9      8      8      2      5     10
#>  5 CW020     NA     NA      3     NA      8      9      8      2      6     10
#>  6 DB010      7      7      6      3      8      8      2      7      3      6
#>  7 DG010      6      1      7     NA      8     10      8      5     12      7
#>  8 IN010     NA     NA      8      8     NA     NA     NA     NA      6      8
#>  9 L010       7      5      7      9     NA     10      8      8      1      9
#> 10 L020       6      4      7     NA     NA     NA     NA     NA      1      7
#> # ... with 37 more rows, and 1 more variable: `2019` <int>
```
…
