…
<!-- end list -->

``` r
presumpscot_data %>% select(Ecoli, qualifier, value) %>% filter( is.na(value) & ! is.na(Ecoli))
#> # A tibble: 0 x 3
#> # ... with 3 variables: Ecoli <chr>, qualifier <chr>, value <dbl>
presumpscot_data %>% select(Ecoli, qualifier, value) %>% filter( qualifier == '<')
#> # A tibble: 1 x 3
#>   Ecoli qualifier value
#>   <chr> <chr>     <dbl>
#> 1 <1    <             1
presumpscot_data %>% select(Ecoli, qualifier, value) %>% filter( qualifier == '>')
#> # A tibble: 70 x 3
#>    Ecoli   qualifier value
#>    <chr>   <chr>     <dbl>
#>  1 >2419.6 >         2420.
#>  2 >2419.6 >         2420.
#>  3 >2419.6 >         2420.
#>  4 >2419.6 >         2420.
#>  5 >2419.6 >         2420.
#>  6 >2419.6 >         2420.
#>  7 >2419.6 >         2420.
#>  8 >2419.6 >         2420.
#>  9 >2419.6 >         2420.
#> 10 >2419.6 >         2420.
#> # ... with 60 more rows
presumpscot_data %>% select(Ecoli, qualifier, value) %>% filter( qualifier == '' & value >2410)
#> # A tibble: 42 x 3
#>    Ecoli              qualifier value
#>    <chr>              <chr>     <dbl>
#>  1 2419.17            ""        2419.
#>  2 2419.17            ""        2419.
#>  3 2419.17            ""        2419.
#>  4 2419.1999999999998 ""        2419.
#>  5 2419.17            ""        2419.
#>  6 2419.17            ""        2419.
#>  7 2419.17            ""        2419.
#>  8 2419.6             ""        2420.
#>  9 2419.6             ""        2420.
#> 10 2419.6             ""        2420.
#> # ... with 32 more rows
```
…
Check for field duplicates in *E. coli* and DO data.

``` r
tmp <- presumpscot_data %>%
  mutate(QC = replace_na(QC, "NA")) %>%  # replace NAs so they can be counted
  group_by(Date, Site) %>%
  summarize(nColi= sum(!is.na(Ecoli) ),
            nDO = sum(!is.na(DO)),
            is_D = any(QC == 'D'),
            Year = min(Year),
            .groups = 'drop') %>%
  filter(nColi>1 | nDO>1) %>%
  arrange(Year, Date)
tmp
#> # A tibble: 214 x 6
#>    Date                Site  nColi   nDO is_D   Year
#>    <dttm>              <fct> <int> <int> <lgl> <dbl>
#>  1 2009-05-16 00:00:00 M030      2     1 TRUE   2009
#>  2 2009-05-16 00:00:00 OB010     2     1 TRUE   2009
#>  3 2009-05-30 00:00:00 N010      2     1 TRUE   2009
#>  4 2009-05-30 00:00:00 P170      2     1 TRUE   2009
#>  5 2009-06-13 00:00:00 N010      2     1 TRUE   2009
#>  6 2009-06-13 00:00:00 P020      2     1 TRUE   2009
#>  7 2009-06-13 00:00:00 PI020     2     1 TRUE   2009
#>  8 2009-06-27 00:00:00 P089      2     1 TRUE   2009
#>  9 2009-06-27 00:00:00 PI020     2     1 TRUE   2009
#> 10 2009-06-27 00:00:00 PL030     2     0 TRUE   2009
#> # ... with 204 more rows
```
…
There appears to be one duplicate sample in 2012 that was not coded as a
duplicate, and duplicates are inconsistently coded in 2017. Duplicates
are absent in 2018, and never coded in 2019.

``` r
tmp  %>%
  filter(nDO > 1) %>%
  filter(! is_D)
#> # A tibble: 61 x 6
#>    Date                Site  nColi   nDO is_D   Year
#>    <dttm>              <fct> <int> <int> <lgl> <dbl>
#>  1 2010-07-03 00:00:00 P020      1     3 FALSE  2010
#>  2 2010-07-03 00:00:00 P030      1     2 FALSE  2010
#>  3 2010-07-17 00:00:00 P020      1     3 FALSE  2010
#>  4 2010-07-17 00:00:00 P030      1     4 FALSE  2010
#>  5 2010-07-31 00:00:00 P020      1     3 FALSE  2010
#>  6 2010-07-31 00:00:00 P030      1     3 FALSE  2010
#>  7 2010-08-14 00:00:00 P020      0     2 FALSE  2010
#>  8 2010-08-28 00:00:00 P020      1     2 FALSE  2010
#>  9 2010-08-28 00:00:00 P030      1     2 FALSE  2010
#> 10 2010-09-11 00:00:00 P020      1     2 FALSE  2010
#> # ... with 51 more rows
```
…
