…
``` r
recentsites <- presumpscot_data %>%
  filter(Year>2014) %>%
  group_by(Site, Year) %>%
  summarize(sampled = n()>0,
            samples = n(),
            .groups = 'drop_last') %>%
  summarise(yrssampled = sum(sampled),
            samples=sum(samples),
            .groups = 'drop') %>%
  filter(yrssampled > 2) %>%
  arrange(samples)
recentsites
#> # A tibble: 34 x 3
#>    Site  yrssampled samples
#>    <chr>      <int>   <int>
#>  1 OB020          3      18
#>  2 L020           3      20
#>  3 IN010          3      23
#>  4 DB010          4      25
#>  5 P050           3      25
#>  6 BL020          3      26
#>  7 P160           3      26
#>  8 P065           3      27
#>  9 P170           3      27
#> 10 PL010          3      27
#> # ... with 24 more rows
```
…
