…
``` r
recentsites <- presumpscot_data %>%
  filter(Year>2014) %>%
  group_by(Site, Year) %>%
  summarize(sampled = n()>0,
            samples = n(),
            .groups = 'drop_last') %>%
  summarise(yrssampled = sum(sampled),
            samples=sum(samples),
            .groups = 'drop') %>%
  filter(yrssampled > 2) %>%
  arrange(samples)
recentsites
#> # A tibble: 34 x 3
#>    Site  yrssampled samples
#>    <chr>      <int>   <int>
#>  1 OB020          3      18
#>  2 L020           3      19
#>  3 P160           3      25
#>  4 BL020          3      26
#>  5 IN010          3      26
#>  6 PL030          3      26
#>  7 P050           3      27
#>  8 P065           3      28
#>  9 P089           3      28
#> 10 P170           3      29
#> # ... with 24 more rows
```
…
